Effects of taurine, cysteine and melatonin as antioxidant supplements to the freezing medium of Prrochilodus brevis sperm
…
    rstatix::get_summary_stats() |>
  
    dplyr::select(-c("variable", "n", "mad")) |>
  
    dplyr::rename(c("Minimum" = "min",
                  "Maximum" = "max",
                  "Mean" = "mean",
                  "Median" = "median",
                  "Q1" = "q1",
                  "Q3" = "q3",
                  "IQR" = "iqr",
                  "CI (95%)" = "ci")) #|> utils::write.csv(file = "./table_experiment.csv", row.names = FALSE)

## # A tibble: 127 × 12
##    Treatment     Variable Minimum Maximum Median    Q1    Q3   IQR   Mean     sd
##    <chr>         <chr>      <dbl>   <dbl>  <dbl> <dbl> <dbl> <dbl>  <dbl>  <dbl>
##  1 Control (0mM) Membran…    42      92     62.8 46    76.9  30.9  63.6   20.3  
##  2 Control (0mM) Motility    27.7    49.9   30.7 29.8  36.3   6.45 34.4    7.73 
##  3 Control (0mM) Normal …    39      71.5   55   52.5  58.5   6    55.4    9.91 
##  4 Control (0mM) Rapid        0.2     0.9    0.5  0.35  0.65  0.3   0.514  0.254
##  5 Control (0mM) VAP         11.2    15.7   13.7 13.4  13.8   0.45 13.6    1.32 
##  6 Control (0mM) VCL         22.8    28.4   26.2 25.8  27.4   1.5  26.3    1.79 
##  7 Control (0mM) VSL          6.3    10      8.5  7.35  9.1   1.75  8.24   1.32 
##  8 Cysteine (0.… DNA int…    72      88     84   81.5  86     4.5  82.7    5.34 
##  9 Cysteine (0.… Membran…    59      87     69   65.5  77    11.5  71.4    9.61 
## 10 Cysteine (0.… Motility    22      59.8   37.6 31.0  49.8  18.8  40.1   13.6  
## # ℹ 117 more rows
## # ℹ 2 more variables: se <dbl>, `CI (95%)` <dbl>
…
